…
### Inspect Data

jsPsych outputs one line per trial.
In this example, the first line is language selection, the second is the consent form, the third is the welcome page, then a survey, and a couple of rng-trials.
You can use `print()` to view the first lines, `str()` to get an overview of the structure, i.e. all variables (columns) and their types, and `View()` to inspect the data in a new RStudio tab.


```r
print(raw)
```

```
## # A tibble: 102 × 26
##     file rt    stimulus             response trial_type trial_index time_elapsed
##    <int> <chr> <chr>                <chr>    <chr>            <int>        <int>
##  1     1 2704  "img/language-b.png" "0"      image-but…           0         2705
##  2     1 1630  ""                   ""       external-…           1         4341
##  3     1 777   ""                   ""       instructi…           2         5118
##  4     1 3108  ""                   "{\"BLL… survey               3         8238
##  5     1 null  "rng..."             "null"   html-keyb…           4         8290
##  6     1 null  "rng..."             "null"   html-keyb…           5         8460
##  7     1 null  "rng..."             "null"   html-keyb…           6         8569
##  8     1 null  "rng..."             "null"   html-keyb…           7         8679
##  9     1 null  "rng..."             "null"   html-keyb…           8         8786
## 10     1 null  "rng..."             "null"   html-keyb…           9         8893
## # ℹ 92 more rows
## # ℹ 19 more variables: internal_node_id <chr>, study <chr>, subject <chr>,
## #   time <dttm>, condition <chr>, url <chr>, view_history <chr>,
## #   test_part <chr>, accuracy <chr>, qbit <int>, BLLS_1 <int>, BLLS_2 <int>,
## #   BLLS_3 <int>, BLLS_4 <int>, age <int>, gender <chr>, bildung <chr>,
## #   handaufsherz <chr>, ungewoehnlich <chr>
```
…
